\relax 
\providecommand\HyperFirstAtBeginDocument{\AtBeginDocument}
\HyperFirstAtBeginDocument{\ifx\hyper@anchor\@undefined
\global\let\oldcontentsline\contentsline
\gdef\contentsline#1#2#3#4{\oldcontentsline{#1}{#2}{#3}}
\global\let\oldnewlabel\newlabel
\gdef\newlabel#1#2{\newlabelxx{#1}#2}
\gdef\newlabelxx#1#2#3#4#5#6{\oldnewlabel{#1}{{#2}{#3}}}
\AtEndDocument{\ifx\hyper@anchor\@undefined
\let\contentsline\oldcontentsline
\let\newlabel\oldnewlabel
\fi}
\fi}
\global\let\hyper@last\relax 
\gdef\HyperFirstAtBeginDocument#1{#1}
\providecommand\HyField@AuxAddToFields[1]{}
\providecommand\HyField@AuxAddToCoFields[2]{}
\@writefile{toc}{\contentsline {section}{Diplômes}{1}{section*.1}\protected@file@percent }
\@writefile{toc}{\contentsline {section}{Expérience professionnelle}{1}{section*.2}\protected@file@percent }
\@writefile{toc}{\contentsline {subsection}{Stages}{1}{section*.3}\protected@file@percent }
\@writefile{toc}{\contentsline {subsection}{Emplois saisonniers}{1}{section*.4}\protected@file@percent }
\@writefile{toc}{\contentsline {section}{Compétences}{1}{section*.5}\protected@file@percent }
\@writefile{toc}{\contentsline {subsection}{Professionnelles}{1}{section*.6}\protected@file@percent }
\@writefile{toc}{\contentsline {subsection}{Logicielles}{1}{section*.7}\protected@file@percent }
\@writefile{toc}{\contentsline {section}{Hobby}{1}{section*.8}\protected@file@percent }
\@writefile{toc}{\contentsline {section}{Autres}{1}{section*.9}\protected@file@percent }
