\relax 
\@nameuse{bbl@beforestart}
\catcode `:\active 
\catcode `;\active 
\catcode `!\active 
\catcode `?\active 
\babel@aux{french}{}
\@mlabel{}{\unhbox \voidb@x \ignorespaces Ankama\\ Responsable des Ressouces Humaines\\ 75 Boulevard d'Armentières\\ 59100 Roubaix}
